<?xml version="1.0" encoding="UTF-8" standalone="no"?>
<svg
   xmlns:dc="http://purl.org/dc/elements/1.1/"
   xmlns:cc="http://creativecommons.org/ns#"
   xmlns:rdf="http://www.w3.org/1999/02/22-rdf-syntax-ns#"
   xmlns:svg="http://www.w3.org/2000/svg"
   xmlns="http://www.w3.org/2000/svg"
   xmlns:sodipodi="http://sodipodi.sourceforge.net/DTD/sodipodi-0.dtd"
   xmlns:inkscape="http://www.inkscape.org/namespaces/inkscape"
   viewBox="0 0 1740.02 512"
   version="1.1"
   id="svg893"
   sodipodi:docname="logo.svg"
   inkscape:version="0.92.3 (2405546, 2018-03-11)">
  <metadata
     id="metadata897">
    <rdf:RDF>
      <cc:Work
         rdf:about="">
        <dc:format>image/svg+xml</dc:format>
        <dc:type
           rdf:resource="http://purl.org/dc/dcmitype/StillImage" />
      </cc:Work>
    </rdf:RDF>
  </metadata>
  <sodipodi:namedview
     pagecolor="#ffffff"
     bordercolor="#666666"
     borderopacity="1"
     objecttolerance="10"
     gridtolerance="10"
     guidetolerance="10"
     inkscape:pageopacity="0"
     inkscape:pageshadow="2"
     inkscape:window-width="1920"
     inkscape:window-height="1015"
     id="namedview895"
     showgrid="false"
     inkscape:zoom="0.76435902"
     inkscape:cx="817.67858"
     inkscape:cy="256"
     inkscape:window-x="0"
     inkscape:window-y="36"
     inkscape:window-maximized="1"
     inkscape:current-layer="svg893" />
  <defs
     id="defs885">
    <style
       id="style876">.cls-1{fill:url(#New_Gradient_Swatch);}</style>
    <linearGradient
       id="New_Gradient_Swatch"
       x1="605.33"
       y1="754.36"
       x2="1125.69"
       y2="-146.91"
       gradientUnits="userSpaceOnUse">
      <stop
         offset="0"
         stop-color="#7f7fd5"
         id="stop878" />
      <stop
         offset="0.48"
         stop-color="#86a8e7"
         id="stop880" />
      <stop
         offset="1"
         stop-color="#91eae4"
         id="stop882" />
    </linearGradient>
  </defs>
  <title
     id="title887">logo</title>
  <path
     class="cls-1"
     d="M 501.24,425.2 V 212.37 a 7.41,7.41 0 0 1 3.5,-6.37 15.34,15.34 0 0 1 9,-2.43 16.1,16.1 0 0 1 9.12,2.43 7.36,7.36 0 0 1 3.65,6.38 v 99.41 a 47.35,47.35 0 0 1 15.81,-16.63 42.88,42.88 0 0 1 24,-6.78 q 22.19,0 38.3,17.18 16.11,17.18 16.11,41.19 v 31 q 0,23.1 -16.11,41 -16.11,17.9 -37.39,17.94 A 47.37,47.37 0 0 1 542,429.66 q -11.57,-7.08 -16.72,-16.93 v 12.33 a 8.11,8.11 0 0 1 -3.5,6.47 12.6,12.6 0 0 1 -8.06,2.77 14.22,14.22 0 0 1 -8.81,-2.73 q -3.66,-2.73 -3.67,-6.37 z m 25.23,-39.37 q 0,7.55 10.64,17.68 10.64,10.13 24,10.12 13.68,0 24,-11 10.32,-11 10.34,-24.93 v -30.85 q 0,-13.61 -10.34,-24.48 -10.34,-10.87 -24.32,-10.88 a 33.81,33.81 0 0 0 -24,9.82 q -10.34,9.82 -10.34,25.54 z m 119.17,-8.07 v -31.92 q 0,-23.4 17.78,-40.43 17.78,-17.03 42.71,-17 a 58.74,58.74 0 0 1 41,15.88 q 17.37,15.84 17.37,39.71 0,8.91 -2.13,14.3 a 14.13,14.13 0 0 1 -6.53,7.69 27.4,27.4 0 0 1 -8.21,2.93 66.89,66.89 0 0 1 -10.19,0.61 h -66.57 v 9.12 q 0,16.72 12,26.75 12,10.03 31.16,10 a 46.24,46.24 0 0 0 17.48,-3 77.86,77.86 0 0 0 12,-5.93 c 3,-1.93 5.48,-2.89 7.3,-2.89 a 9.1,9.1 0 0 1 7.3,3.8 12.39,12.39 0 0 1 3,7.75 q 0,7 -13.84,14.29 -13.84,7.29 -34.19,7.3 -29.8,0 -48.65,-16.27 -18.85,-16.27 -18.79,-42.69 z m 25.23,-25.54 h 56.24 q 7.9,0 10.64,-2 2.74,-2 2.73,-7.75 0,-13.68 -10,-24 a 33,33 0 0 0 -24.62,-10.34 35,35 0 0 0 -24.62,9.58 30.83,30.83 0 0 0 -10.34,23.56 z m 121,36.18 V 231.84 c 0,-2.43 1.31,-4.51 3.95,-6.23 a 15.27,15.27 0 0 1 8.51,-2.59 15.82,15.82 0 0 1 8.82,2.59 q 3.95,2.58 4,6.23 v 58.37 h 38.3 a 6.44,6.44 0 0 1 5.48,3 12,12 0 0 1 2.13,7 11.25,11.25 0 0 1 -2.13,6.84 6.52,6.52 0 0 1 -5.48,2.89 h -38.3 v 77.76 q 0,13 5.62,18.23 5.62,5.23 19.61,5.27 h 9.43 a 10.11,10.11 0 0 1 8,3.32 11.88,11.88 0 0 1 2.89,8.08 12.12,12.12 0 0 1 -3,8.22 10,10 0 0 1 -7.9,3.48 h -9.43 q -50.51,0 -50.51,-45.9 z m 85.42,8.25 q 0,-23.91 18.24,-33.25 18.24,-9.34 52.9,-9.35 H 963 v -6.43 q 0,-15.3 -8.36,-26.63 -8.36,-11.33 -25.08,-11.33 a 52.5,52.5 0 0 0 -22.5,4.56 q -9.72,4.56 -10.64,4.56 c -2.84,0 -5.12,-1.36 -6.84,-4.1 A 16,16 0 0 1 887,306 q 0,-7 13.83,-12.32 a 81.15,81.15 0 0 1 29.34,-5.32 q 29.79,0 43.93,16.88 14.14,16.88 14.13,42.1 v 77.82 a 7.85,7.85 0 0 1 -3.49,6.54 14.73,14.73 0 0 1 -9,2.58 13.23,13.23 0 0 1 -8.21,-2.51 7.66,7.66 0 0 1 -3.34,-6.36 v -11.82 q -20.68,23.15 -45.91,23.15 -18.24,0 -29.64,-10.25 -11.4,-10.25 -11.36,-29.84 z m 25.54,-2.77 q 0,11.4 6.38,17.24 6.38,5.84 17,5.86 Q 939,417 951,406.66 q 12,-10.34 12,-21.1 v -16 h -10.63 q -8.82,0 -15.2,0.46 a 105.64,105.64 0 0 0 -13.17,1.84 36.32,36.32 0 0 0 -11.25,4 19.83,19.83 0 0 0 -9.88,18 z m 111.26,19.75 a 13.62,13.62 0 0 1 2.59,-7.75 q 2.58,-3.79 6.23,-3.8 2.43,0 7,3.8 a 53.57,53.57 0 0 0 13.07,7.45 50.51,50.51 0 0 0 20.02,3.67 q 15.2,0 22,-5.54 a 17.09,17.09 0 0 0 6.84,-13.84 19.51,19.51 0 0 0 -7.6,-16.13 52.46,52.46 0 0 0 -18.55,-9.07 q -10.93,-3.07 -21.89,-6.76 a 42.35,42.35 0 0 1 -18.54,-12.3 q -7.6,-8.61 -7.6,-22.75 A 40.88,40.88 0 0 1 1030,300.9 q 12.32,-12.52 37.55,-12.52 a 85.76,85.76 0 0 1 29.48,4.87 q 13.38,4.88 13.38,11.06 0,3.65 -2.89,8.2 -2.89,4.55 -7.14,4.55 -1.22,0 -11.71,-4.46 a 52.92,52.92 0 0 0 -20.82,-4.46 q -14,0 -20.82,6.62 -6.82,6.62 -6.84,14.91 c 0,5.73 2.53,10.25 7.6,13.52 a 61.47,61.47 0 0 0 18.69,7.69 217.19,217.19 0 0 1 22,6.76 41.37,41.37 0 0 1 18.55,13.68 q 7.59,9.69 7.6,25.06 0,18.67 -13.38,29.52 -13.38,10.85 -37.39,10.84 -20.68,0 -35.27,-7.45 -14.59,-7.45 -14.51,-15.66 z m 122.82,-35.87 v -30.4 q 0,-26.14 15.35,-42.56 15.35,-16.42 45.14,-16.42 18.85,0 31.77,6.69 12.92,6.69 12.92,14.29 a 13.52,13.52 0 0 1 -3.19,8.36 c -2.13,2.74 -4.61,4.1 -7.45,4.1 q -1.21,0 -10.49,-5.16 -9.28,-5.16 -21.73,-5.17 -18.24,0 -27.67,9.37 -9.43,9.37 -9.42,26.59 v 30.22 q 0,36 37.39,36 12.76,0 22.19,-5.32 9.43,-5.32 11,-5.32 a 9.94,9.94 0 0 1 8,3.95 13,13 0 0 1 3.2,8.21 q 0,7.61 -13.38,14.59 -13.38,6.98 -32.83,7 -30.1,0 -45.45,-16.27 -15.35,-16.27 -15.36,-42.75 z m 132.23,47.44 V 212.37 a 7.43,7.43 0 0 1 3.5,-6.37 15.37,15.37 0 0 1 9,-2.43 16.1,16.1 0 0 1 9.12,2.43 7.38,7.38 0 0 1 3.65,6.38 v 99.41 a 45,45 0 0 1 15.35,-16.63 q 10.18,-6.77 24.17,-6.78 21.57,0 37.54,17.18 15.97,17.18 16,41.19 v 78.43 a 7.56,7.56 0 0 1 -3.8,6.69 16.21,16.21 0 0 1 -9,2.43 15.71,15.71 0 0 1 -8.66,-2.42 7.51,7.51 0 0 1 -3.8,-6.67 V 347 q 0,-13.65 -10.34,-24.56 -10.34,-10.91 -24.32,-10.92 -13.07,0 -23.1,9.85 -10.03,9.85 -10,25.63 v 78.24 c 0,2.22 -1.27,4.3 -3.8,6.22 a 14.45,14.45 0 0 1 -9,2.87 14.23,14.23 0 0 1 -8.82,-2.73 q -3.7,-2.76 -3.7,-6.4 z m 147.44,-47.44 v -31 q 0,-23.4 17.79,-40.89 17.79,-17.49 42.1,-17.48 24.32,0 42.26,17.33 17.94,17.33 17.93,41 v 31 q 0,23.1 -18.08,41 -18.08,17.9 -42.11,17.94 -24,0 -42,-17.79 -18,-17.79 -17.9,-41.11 z m 25.24,-0.09 q 0,14.2 10.33,25.09 10.33,10.89 24.32,10.87 14.3,0 24.62,-11 10.32,-11 10.34,-24.93 v -30.85 q 0,-13.61 -10.34,-24.48 -10.34,-10.87 -24.62,-10.88 -14.3,0 -24.47,10.88 -10.17,10.88 -10.18,24.48 z m 119.77,0.09 v -31 q 0,-23.4 17.78,-40.89 17.78,-17.49 42.11,-17.48 24.32,0 42.25,17.33 17.93,17.33 17.94,41 v 31 q 0,23.1 -18.09,41 -18.09,17.9 -42.1,17.94 -24,0 -42,-17.79 -18,-17.79 -17.9,-41.11 z m 25.23,-0.09 q 0,14.2 10.34,25.09 10.34,10.89 24.32,10.87 14.28,0 24.62,-11 10.34,-11 10.34,-24.93 v -30.85 q 0,-13.61 -10.34,-24.48 -10.34,-10.87 -24.62,-10.88 -14.29,0 -24.48,10.88 -10.19,10.88 -10.18,24.48 z m 128,47.51 v -213.1 a 7.45,7.45 0 0 1 3.5,-6.38 15.34,15.34 0 0 1 9,-2.44 16.15,16.15 0 0 1 9.13,2.44 7.37,7.37 0 0 1 3.64,6.38 v 213.1 c 0,2.24 -1.27,4.31 -3.8,6.24 a 15.49,15.49 0 0 1 -17.78,0.15 c -2.51,-1.83 -3.72,-3.95 -3.72,-6.39 z M 308.19,107.38 A 142,142 0 1 0 113.81,314.16 c 22.47,19.62 35.36,47.52 35.36,76.54 v 71.63 A 49.72,49.72 0 0 0 198.84,512 h 16.66 a 49.72,49.72 0 0 0 49.67,-49.67 v -70.72 c 0,-29.84 12.64,-57.86 34.68,-76.86 a 142,142 0 0 0 8.34,-207.37 z M 207,279.15 h -6.63 a 6.58,6.58 0 1 1 6.63,-6.52 z m 0.13,59.44 a 10,10 0 0 1 10,10 v 34 h -20 v -34 a 10,10 0 0 1 10.04,-10 z m 38,64 v 14.7 h -76 v -14.7 z m -76,34.7 h 76 V 452 h -76 z M 215.5,492 h -16.66 a 29.71,29.71 0 0 1 -28.05,-20 h 72.75 a 29.7,29.7 0 0 1 -28.04,20 z m 71.29,-192.4 a 120.8,120.8 0 0 0 -41.3,83 h -8.32 v -34 A 30,30 0 0 0 227,326.13 v -33 A 32.13,32.13 0 0 0 240.5,267 v -15.51 a 38.68,38.68 0 0 0 -38.64,-38.64 h -18 a 10,10 0 0 0 0,20 h 18 a 18.66,18.66 0 0 1 18.64,18.64 v 3.68 a 26.58,26.58 0 1 0 -20.09,44 H 207 v 19.44 a 30,30 0 0 0 -29.87,30 v 34 h -8.28 A 122.21,122.21 0 0 0 127,299.1 122.1,122.1 0 0 1 208.79,85.18 c 66.37,0.86 120.38,55.59 120.38,122 A 122,122 0 0 1 286.79,299.6 Z M 209.19,113.82 H 209 a 10.000211,10.000211 0 1 0 -0.13,20 h 0.27 a 10,10 0 0 0 0,-20 z m 44,11.73 a 10,10 0 1 0 -9.74,17.45 73.49,73.49 0 0 1 37.72,64.14 10,10 0 1 0 20,0 93.51,93.51 0 0 0 -47.99,-81.59 z M 207.17,47 a 10,10 0 0 0 10,-10 V 10 a 10,10 0 0 0 -20,0 v 27 a 10,10 0 0 0 10,10 z m 197.17,150.17 h -27 a 10,10 0 0 0 0,20 h 27 a 10,10 0 0 0 0,-20 z M 37,197.17 H 10 a 10,10 0 0 0 0,20 h 27 a 10,10 0 0 0 0,-20 z m 297.57,123.26 a 10.002026,10.002026 0 0 0 -14.15,14.14 l 19.1,19.09 a 10,10 0 1 0 14.14,-14.14 z M 79.77,93.91 A 10,10 0 1 0 93.91,79.77 L 74.82,60.68 A 10,10 0 0 0 60.68,74.82 Z M 339.52,60.68 320.43,79.77 a 10,10 0 1 0 14.14,14.14 L 353.66,74.82 A 10,10 0 1 0 339.52,60.68 Z M 79.77,320.43 60.68,339.52 a 10,10 0 1 0 14.14,14.14 L 93.91,334.57 A 10,10 0 1 0 79.77,320.43 Z"
     id="path889"
     style="fill:url(#New_Gradient_Swatch)"
     inkscape:connector-curvature="0"
     inkscape:export-filename="/media/caitie/linux-data/OWI/Dev/2019/Term_1/Betaschool/Documentation/logo.png"
     inkscape:export-xdpi="96"
     inkscape:export-ydpi="96" />
</svg>
